<?xml version="1.0" encoding="UTF-8" standalone="no"?>
<!-- Creator: CorelDRAW -->

<svg
   xmlns:dc="http://purl.org/dc/elements/1.1/"
   xmlns:cc="http://creativecommons.org/ns#"
   xmlns:rdf="http://www.w3.org/1999/02/22-rdf-syntax-ns#"
   xmlns:svg="http://www.w3.org/2000/svg"
   xmlns="http://www.w3.org/2000/svg"
   xmlns:sodipodi="http://sodipodi.sourceforge.net/DTD/sodipodi-0.dtd"
   xmlns:inkscape="http://www.inkscape.org/namespaces/inkscape"
   xml:space="preserve"
   width="137.42511mm"
   height="151.92349mm"
   style="clip-rule:evenodd;fill-rule:evenodd;image-rendering:optimizeQuality;shape-rendering:geometricPrecision;text-rendering:geometricPrecision"
   viewBox="0 0 137.42511 151.9235"
   id="svg2"
   version="1.1"
   inkscape:version="0.91 r13725"
   sodipodi:docname="VU_L_BW.svg"><metadata
     id="metadata14"><rdf:RDF><cc:Work
         rdf:about=""><dc:format>image/svg+xml</dc:format><dc:type
           rdf:resource="http://purl.org/dc/dcmitype/StillImage" /><dc:title></dc:title></cc:Work></rdf:RDF></metadata><sodipodi:namedview
     pagecolor="#ffffff"
     bordercolor="#666666"
     borderopacity="1"
     objecttolerance="10"
     gridtolerance="10"
     guidetolerance="10"
     inkscape:pageopacity="0"
     inkscape:pageshadow="2"
     inkscape:window-width="1920"
     inkscape:window-height="1080"
     id="namedview12"
     showgrid="false"
     fit-margin-top="0"
     fit-margin-left="0"
     fit-margin-right="0"
     fit-margin-bottom="0"
     inkscape:zoom="0.23838384"
     inkscape:cx="-415.82521"
     inkscape:cy="153.14847"
     inkscape:window-x="0"
     inkscape:window-y="0"
     inkscape:window-maximized="0"
     inkscape:current-layer="svg2" /><defs
     id="defs4"><style
       type="text/css"
       id="style6"><![CDATA[
    .fil0 {fill:#1F1A17}
   ]]></style></defs><g
     id="Layer_x0020_1"
     transform="translate(-25.2263,-30.9984)"><metadata
       id="CorelCorpID_0Corel-Layer" /><path
       class="fil0"
       d="m 25.6674,99.4022 0.6764,0.0588 -0.0588,0.9411 0.1765,0.2059 8.3519,-1.9998 -7.6461,-3.8231 -0.2059,0.147 -0.1764,0.9705 -0.6764,-0.0882 0.3823,-3.1761 0.6764,0.0882 0.0588,1.0293 1.1175,0.5882 8.2343,4.2348 -0.147,1.0881 -1.2058,0.2941 -9.0577,2.235 -0.2941,0.9117 -0.647,-0.0589 0.4411,-3.6466 z m 11.0576,-6.2346 0.147,-0.9704 -0.2058,-0.2647 -0.0295,0 -8.5578,-1.8233 -0.2647,0.147 -0.2646,0.9705 -0.647,-0.147 0.8234,-3.9114 0.6764,0.1471 -0.1764,1.0293 0.147,0.2941 0.0882,0.0294 8.5284,1.7939 0.2941,-0.2059 0.2941,-0.9999 0.6176,0.1471 -0.8234,3.9113 -0.647,-0.1471 z m 0.9999,-4.5877 0.2058,-0.8822 -0.1176,-0.3529 -0.0294,0 -8.3814,-2.5585 -0.2941,0.2058 -0.3235,0.8823 -0.647,-0.1765 1.1176,-3.7054 0.6469,0.2058 -0.2058,0.8529 0.1176,0.3529 0.2941,0.0882 8.352,2.5585 1.0587,-3.4702 -0.2059,-0.294 -1.7645,-0.7941 0.2647,-0.794 2.7938,0.8234 -2.2351,7.2933 -0.6469,-0.2353 z m 2.382,-7.8226 0.2941,-0.941 -0.147,-0.3529 -7.9403,-3.529 -0.2941,0.147 -0.4705,0.8823 -0.6176,-0.2647 1.2058,-2.7056 0.3529,0.1471 9.6753,-1.6469 -6.8521,-3.0585 -0.3529,0.1471 -0.5,0.8528 -0.6175,-0.2647 1.3527,-3.0584 0.6176,0.2646 -0.2647,0.8823 0.1177,0.4117 0.8528,0.3823 7.9697,3.529 -0.4412,0.9705 -0.4117,0.0588 -10.3517,1.7939 7.3227,3.2643 0.3529,-0.147 0.5293,-0.8234 0.5882,0.2646 -1.3528,3.0585 -0.6176,-0.2647 z m 4.8524,-9.7929 0.4999,-0.8823 -0.0882,-0.2941 -0.0294,-0.0294 -7.4403,-4.6465 -0.2647,0.0882 -0.5881,0.794 -0.5882,-0.3529 2.1174,-3.3819 0.5882,0.3529 -0.5,0.9116 0.0294,0.3235 0.0883,0.0589 7.3814,4.5877 0.3235,-0.0883 0.6176,-0.8234 0.5588,0.3529 -2.1174,3.382 -0.5882,-0.3529 z m -2.088,-14.7924 1.294,0.3823 8.9695,2.7055 0.7352,-0.5881 0.5,0.3823 -2.2057,2.8526 -0.4999,-0.4117 0.5294,-0.8235 -0.1471,-0.2058 -3.0585,-0.9999 -2.3232,2.9702 1.6763,2.7644 0.2646,0.0294 0.7352,-0.7646 0.5,0.3823 -1.9116,2.4703 -0.4999,-0.4117 0.3823,-0.8234 -0.647,-1.1764 -4.9406,-7.9108 0.647,-0.8234 z m 3.4408,5.5875 1.9409,-2.4997 -4.4994,-1.4704 2.5585,3.9701 z m 4.3818,-13.5278 0.4117,0.5294 -0.7058,0.6764 -0.0588,0.3234 3.8231,4.4113 c 0.0882,0.1176 0.2059,0.2353 0.2941,0.3235 0.0882,0.1176 0.2353,0.2353 0.2941,0.3235 0.1764,0.1764 0.3529,0.3235 0.5587,0.4411 0.1765,0.1176 0.4412,0.2059 0.6764,0.2353 0.3823,0.0882 0.8235,0.0588 1.2352,-0.0883 0.4117,-0.1764 0.794,-0.3823 1.1469,-0.7058 0.3529,-0.2646 0.647,-0.6469 0.8528,-1.0292 0.2059,-0.3824 0.2941,-0.8235 0.2647,-1.2058 0,-0.2353 -0.0588,-0.4999 -0.147,-0.6764 -0.1177,-0.2352 -0.2059,-0.4705 -0.3529,-0.647 -0.0882,-0.0882 -0.1765,-0.2352 -0.2647,-0.3235 -0.0882,-0.1176 -0.2059,-0.2352 -0.2941,-0.3529 l -3.7348,-4.323 -0.3823,0 -0.7941,0.5294 -0.4411,-0.5294 2.5291,-2.2056 0.4411,0.5293 -0.6469,0.7058 -0.0589,0.4118 3.8231,4.3818 c 0.1177,0.147 0.2353,0.2647 0.3235,0.3823 0.1177,0.1471 0.2059,0.2941 0.3235,0.4117 0.1765,0.2353 0.3235,0.5588 0.4411,0.8235 0.1471,0.294 0.2059,0.6469 0.2353,0.9704 0,0.4412 -0.0882,0.8823 -0.3235,1.2646 -0.2058,0.4117 -0.4999,0.8234 -0.794,1.1469 -0.0882,0.0882 -0.2059,0.2353 -0.2941,0.3235 -0.1176,0.0882 -0.2353,0.2353 -0.3235,0.2941 -0.0882,0.0882 -0.2058,0.2059 -0.2941,0.2647 -0.1176,0.1176 -0.2941,0.1764 -0.4117,0.2646 -0.3823,0.2647 -0.8234,0.5 -1.2351,0.647 -0.4118,0.1471 -0.8823,0.2059 -1.3234,0.1471 -0.3235,-0.0588 -0.647,-0.1765 -0.8823,-0.3529 -0.2646,-0.1765 -0.5587,-0.3823 -0.7646,-0.5882 -0.1176,-0.1176 -0.2352,-0.2647 -0.3529,-0.3529 -0.0882,-0.147 -0.2352,-0.2647 -0.3235,-0.3823 l -3.9407,-4.4995 -0.3235,0.0294 -0.7352,0.5588 -0.4411,-0.5294 2.9702,-2.5585 z m 12.4692,3.3526 -1.5587,-2.3233 0.8235,-0.5293 1.1469,1.4116 0.3529,0.1176 c 0.2647,-0.0294 0.5293,-0.0882 0.794,-0.2059 0.2941,-0.1176 0.5882,-0.2646 0.8528,-0.4411 0.5,-0.3235 0.9117,-0.7646 1.1764,-1.294 0.2647,-0.5293 0.2058,-1.0881 -0.1765,-1.6762 -0.2941,-0.4412 -0.7058,-0.7352 -1.1763,-0.7647 -0.5294,-0.0294 -1.0881,0 -1.5881,0.1177 -0.2352,0.0294 -0.4705,0.0588 -0.6763,0.1176 -0.2059,0.0882 -0.4412,0.1176 -0.6176,0.1471 -0.5588,0.1176 -1.2352,0.0588 -1.8233,-0.0295 -0.6176,-0.0882 -1.1176,-0.4705 -1.4705,-0.9998 -0.5587,-0.8529 -0.6469,-1.6763 -0.294,-2.5586 0.3529,-0.8528 0.9116,-1.5292 1.6468,-2.0291 0.1177,-0.0589 0.2059,-0.1177 0.2941,-0.1765 0.1176,-0.0588 0.2647,-0.1176 0.3529,-0.1764 0.2941,-0.1765 0.647,-0.2941 0.9705,-0.4412 0.3235,-0.147 0.6764,-0.2352 0.9411,-0.3235 l 1.3527,2.0586 -0.6764,0.4412 -1.0292,-1.1176 c -0.2941,-0.0588 -0.5882,-0.0588 -0.8529,-0.0294 -0.2941,0.0294 -0.5587,0.1471 -0.8234,0.3235 0,0 -0.0588,0.0294 -0.0588,0.0294 0,0 -0.0294,0.0294 -0.0294,0.0294 -0.4412,0.2941 -0.7647,0.7647 -0.9705,1.2646 -0.1765,0.5588 -0.1177,1.0587 0.2058,1.5586 0.2353,0.3823 0.5882,0.6176 0.9411,0.6764 0.3235,0.0588 0.7646,0.0883 1.1469,0.0588 0.0883,-0.0294 0.2059,-0.0588 0.3235,-0.0588 0.0882,0 0.2353,-0.0294 0.3235,-0.0588 0.1176,0 0.2941,-0.0588 0.4411,-0.0588 0.1177,-0.0294 0.2941,-0.0588 0.4412,-0.0882 0.6764,-0.1177 1.3527,-0.1471 2.0291,-0.0883 0.6764,0.0589 1.2352,0.3824 1.6469,1.0293 0.5588,0.8235 0.647,1.6763 0.3235,2.4703 -0.3529,0.8235 -0.8823,1.5293 -1.5292,2.0586 -0.1177,0.0882 -0.2353,0.1471 -0.3235,0.2353 -0.1177,0.0588 -0.2059,0.147 -0.3235,0.2058 -0.0882,0.0883 -0.1765,0.1471 -0.2647,0.1765 -0.0882,0.0882 -0.2059,0.1176 -0.2941,0.1764 -0.3235,0.2059 -0.647,0.3529 -0.9705,0.4706 -0.3234,0.147 -0.7058,0.2647 -1.0292,0.3235 l 0.0294,-0.0294 z m 10.881,-17.0863 0.1765,0.647 -0.9117,0.3529 -0.2058,0.2647 1.7057,5.5876 c 0.0294,0.1176 0.0882,0.294 0.1176,0.4117 0.0588,0.147 0.1176,0.2941 0.1764,0.4117 0.0589,0.2353 0.1765,0.4411 0.2941,0.6176 0.1177,0.2058 0.3529,0.3823 0.5294,0.4999 0.3235,0.2353 0.7352,0.4117 1.1763,0.4117 0.4411,0.0294 0.8823,-0.0294 1.3234,-0.147 0.4411,-0.1471 0.8528,-0.3529 1.2057,-0.6176 0.3529,-0.2647 0.6176,-0.6176 0.7352,-0.9999 0.0883,-0.2058 0.1471,-0.4705 0.1471,-0.6764 -0.0294,-0.2352 0,-0.4999 -0.0882,-0.7352 -0.0295,-0.0882 -0.0589,-0.2646 -0.0883,-0.3823 -0.0294,-0.147 -0.0882,-0.3235 -0.1176,-0.4705 l -1.6763,-5.4406 -0.3235,-0.1764 -0.941,0.147 -0.2059,-0.6469 3.2055,-0.9705 0.2059,0.647 -0.9117,0.4117 -0.2058,0.3235 1.7056,5.5581 c 0.0589,0.1765 0.1177,0.3529 0.1471,0.5 0.0588,0.147 0.0882,0.3235 0.147,0.4999 0.0588,0.2941 0.0588,0.6176 0.0588,0.9411 0,0.2941 -0.0588,0.6764 -0.2058,0.9705 -0.1471,0.3823 -0.4411,0.7646 -0.794,1.0293 -0.3529,0.294 -0.7647,0.5293 -1.1764,0.7352 -0.147,0.0294 -0.2941,0.1176 -0.4117,0.147 -0.147,0.0294 -0.2941,0.1176 -0.4117,0.1471 -0.1176,0.0294 -0.2941,0.0882 -0.4117,0.1176 -0.1177,0.0588 -0.3235,0.0588 -0.4706,0.0882 -0.4411,0.0882 -0.941,0.1176 -1.3822,0.0882 C 75.7204,44.7321 75.2793,44.6145 74.897,44.3792 74.6323,44.2028 74.3676,43.9675 74.2206,43.7028 74.0736,43.4382 73.8677,43.1147 73.7501,42.85 73.7207,42.6735 73.6618,42.5265 73.603,42.3795 73.5736,42.203 73.4854,42.056 73.456,41.9089 l -1.7645,-5.7052 -0.2941,-0.1176 -0.9117,0.2058 -0.1764,-0.647 3.7348,-1.1469 z m 9.8518,7.4109 0.9705,-0.2058 0.2353,-0.2941 -0.7646,-8.6461 -0.2941,-0.2058 -0.9999,0.0294 -0.0588,-0.6764 2.9702,-0.2353 0.0294,0.3823 6.1464,7.6462 -0.6764,-7.4697 -0.2647,-0.2353 -1.0293,-0.0294 -0.0588,-0.6764 3.3525,-0.2941 0.0589,0.6764 -0.9117,0.2059 -0.2941,0.2941 0.0882,0.941 0.7647,8.6755 -1.0587,0.0882 -0.2647,-0.3235 -6.5875,-8.2049 0.7058,7.9991 0.2941,0.2352 0.9999,0.0588 0.0588,0.647 -3.3525,0.2941 -0.0589,-0.6764 z m 11.0576,-0.7058 0.9998,-0.0294 0.2059,-0.2353 0,-0.0294 0.3235,-8.7342 -0.2059,-0.2353 -0.9998,-0.0882 0.0294,-0.6764 3.9995,0.147 -0.0294,0.6764 -1.0293,0.0294 -0.2647,0.1765 -0.0294,0.0882 -0.2941,8.7049 0.2647,0.2646 1.0293,0.1177 -0.0294,0.647 -3.9995,-0.1471 0.0294,-0.6764 z m 10.2929,-9.0283 -0.1471,0.6469 -0.941,-0.1176 -0.2059,0.1471 1.2646,8.499 4.4994,-7.2639 -0.147,-0.2353 -0.9411,-0.2646 0.1177,-0.6764 3.1467,0.6764 -0.1471,0.6469 -0.9999,-0.0294 -0.7352,1.0881 -4.9112,7.8227 -1.0881,-0.2353 -0.1764,-1.2352 -1.441,-9.2048 -0.8823,-0.3823 0.1471,-0.647 3.5878,0.7647 z m 5.2641,11.3222 0.8528,0.3235 0.3235,-0.1177 0.0294,-0.0294 3.5584,-7.999 -0.1764,-0.2941 -0.7646,-0.4117 0.2646,-0.6176 6.9698,3.0879 -0.9411,2.1468 -0.8822,-0.3823 0.3823,-1.294 -0.1176,-0.3529 -3.3526,-1.4704 -1.6469,3.7054 2.3821,1.0587 0.3235,-0.147 0.6176,-0.9999 0.6764,0.3235 -1.441,3.2055 -0.6764,-0.2941 0.3235,-1.1469 -0.1177,-0.3235 -2.382,-1.0293 -1.7939,4.0878 3.8819,1.7351 0.3234,-0.1471 0.8823,-1.3528 0.7646,0.3235 -1.0587,2.3821 -7.4697,-3.3231 0.2647,-0.647 z m 17.0568,-2.6762 c 0.794,0.5294 1.441,1.1763 1.9115,1.8821 0.4412,0.7058 0.3529,1.5881 -0.294,2.588 -0.4412,0.7058 -0.9999,1.0587 -1.6175,1.1175 -0.6176,0.0588 -1.294,0 -1.9998,-0.2353 0.5294,0.6176 0.8235,1.147 0.8235,1.5293 -0.0294,0.4117 -0.0883,0.8528 -0.2647,1.2939 -0.1176,0.2059 -0.1765,0.5 -0.2941,0.7352 -0.0882,0.2941 -0.147,0.647 -0.1764,0.9999 0.0294,0.4117 0.147,0.7646 0.3823,0.9999 0.2646,0.2353 0.5293,0.4999 0.8528,0.6764 0,0 0,0.0294 0,0.0294 0,0 0.0588,0.0294 0.0588,0.0294 l -0.3235,0.5 c -0.0588,-0.0295 -0.147,-0.0883 -0.2058,-0.1177 -0.0882,-0.0294 -0.1765,-0.1176 -0.2353,-0.147 -0.1176,-0.0588 -0.2647,-0.1471 -0.3823,-0.2059 -0.1176,-0.0882 -0.2647,-0.147 -0.3529,-0.2058 -0.4411,-0.2941 -0.7646,-0.647 -0.9705,-1.0293 -0.1764,-0.4117 -0.1764,-1.0293 0,-1.7351 0.1177,-0.2647 0.2059,-0.5882 0.2647,-0.794 0.0882,-0.2353 0.147,-0.5294 0.1765,-0.7058 0.1764,-0.5882 0.1764,-1.1176 0.0294,-1.4411 -0.1471,-0.3234 -0.5882,-0.7646 -1.3234,-1.2057 l -0.5294,-0.3823 -2.0585,3.2055 0.0882,0.3235 0.7058,0.5882 -0.3529,0.5293 -3.1761,-2.0586 0.3529,-0.5293 0.794,0.3823 0.3823,-0.0294 0,-0.0294 4.7642,-7.3521 -0.1177,-0.3235 -0.7058,-0.5294 0.3529,-0.5587 3.4408,2.2056 z m -4.0583,3.5584 c 0,0 0.0294,0.0588 0.0294,0.0588 0.0294,0 0.0882,0.0294 0.1176,0.0589 0.0882,0.0588 0.2353,0.147 0.3235,0.2352 0.1176,0.0588 0.2353,0.1177 0.3529,0.1765 0.5293,0.3529 1.1175,0.5587 1.6763,0.6764 0.5881,0.0882 1.1763,-0.1765 1.6762,-0.8235 l 0.0589,-0.1176 c 0.2058,-0.2941 0.3234,-0.647 0.4117,-0.9999 0.0588,-0.3823 0.0588,-0.7646 -0.0588,-1.1469 -0.1177,-0.2059 -0.2647,-0.4411 -0.4706,-0.6176 -0.2058,-0.1764 -0.4117,-0.4117 -0.647,-0.5293 -0.0294,-0.0294 -0.0588,-0.0589 -0.0882,-0.0883 -0.0588,-0.0294 -0.0882,-0.0588 -0.1176,-0.0588 l -0.8529,-0.5587 -2.4114,3.7348 z m 3.823,8.8519 1.7939,-2.1174 0.7353,0.6176 -1.0587,1.4998 0,0.3823 c 0.0882,0.2353 0.2352,0.4706 0.4117,0.7058 0.1764,0.2353 0.4411,0.5 0.647,0.7058 0.4705,0.3823 0.9998,0.6764 1.588,0.7647 0.5588,0.1176 1.0881,-0.0883 1.5586,-0.6176 0.3529,-0.4117 0.5,-0.8823 0.4118,-1.3528 -0.1177,-0.4999 -0.2941,-1.0293 -0.5588,-1.4998 -0.0882,-0.2059 -0.1764,-0.4412 -0.2941,-0.6176 -0.1176,-0.1765 -0.2352,-0.3823 -0.3235,-0.5588 -0.2352,-0.4999 -0.3823,-1.1469 -0.4411,-1.7351 -0.0882,-0.6175 0.1176,-1.2351 0.5294,-1.7056 0.6469,-0.7647 1.441,-1.0881 2.382,-0.9999 0.9117,0.1176 1.7351,0.4705 2.4115,1.0587 0.0882,0.0588 0.1765,0.147 0.2647,0.2352 0.0882,0.0589 0.1764,0.1765 0.2647,0.2647 0.2352,0.2353 0.4411,0.5588 0.6764,0.8235 0.2352,0.2646 0.3823,0.5881 0.5881,0.8234 l -1.6174,1.8527 -0.647,-0.5293 0.8234,-1.294 c -0.0294,-0.2941 -0.1176,-0.5882 -0.2058,-0.8528 -0.1177,-0.2647 -0.2941,-0.5 -0.5294,-0.6764 0,0 -0.0588,-0.0294 -0.0588,-0.0294 0,0 -0.0294,-0.0589 -0.0294,-0.0589 -0.4117,-0.3235 -0.9411,-0.4999 -1.4998,-0.5587 -0.5588,-0.0294 -1.0587,0.1764 -1.4411,0.6176 -0.294,0.3529 -0.4117,0.7352 -0.3823,1.0881 0.0589,0.3529 0.1177,0.7646 0.2647,1.1175 0.0588,0.0882 0.0882,0.2058 0.1471,0.2941 0.0294,0.0882 0.0882,0.2058 0.1176,0.294 0.0588,0.1177 0.147,0.2647 0.2058,0.4118 0.0589,0.1176 0.1471,0.2646 0.2059,0.3823 0.2941,0.647 0.5294,1.2939 0.647,1.9409 0.1176,0.647 -0.0294,1.294 -0.5294,1.8822 -0.6764,0.7352 -1.441,1.0587 -2.2938,0.9704 -0.8823,-0.1176 -1.7057,-0.4117 -2.4115,-0.9116 -0.0882,-0.0588 -0.2059,-0.1765 -0.2941,-0.2353 -0.0882,-0.0882 -0.2352,-0.147 -0.3235,-0.2353 -0.0882,-0.0882 -0.1764,-0.147 -0.2352,-0.2058 -0.0883,-0.0882 -0.1471,-0.1765 -0.2353,-0.2647 -0.2647,-0.2353 -0.4999,-0.4999 -0.7352,-0.7646 -0.2353,-0.2941 -0.4411,-0.6176 -0.5882,-0.9117 l 0.0588,0 z m 5.7935,4.7348 0.7058,0.7058 0.3235,-0.0294 0.0294,0 6.411,-5.9699 0,-0.2941 -0.647,-0.794 0.5,-0.4412 2.7349,2.9115 -0.4999,0.4705 -0.7352,-0.7058 -0.3235,-0.0588 -0.0882,0.0588 -6.3522,5.9405 0,0.3529 0.6469,0.794 -0.4705,0.4411 -2.735,-2.9114 0.5,-0.4705 z m 11.4398,-2.4703 5.3523,6.8521 -1.9409,1.5292 -0.5294,-0.7058 1.0293,-1.0587 0.0294,-0.3823 -1.4704,-1.9115 -0.2352,0.2059 -6.8522,5.3523 -0.0294,0.3529 0.5882,0.8822 -0.5294,0.4117 -2.5291,-3.2643 0.4999,-0.4117 0.7058,0.794 0.3529,0.0588 0.2059,-0.1764 6.8816,-5.3817 -1.4411,-1.8822 -0.3823,-0.0294 -1.2939,0.7058 -0.5588,-0.6764 1.941,-1.5292 0.2058,0.2647 z m -2.2056,13.7337 0.4411,0.7646 0.3529,0.147 0.0294,-0.0294 7.7932,-3.9701 0.0589,-0.3235 -0.3529,-0.8234 0.6175,-0.2941 3.4408,6.7933 -2.0586,1.0293 -0.4117,-0.8234 1.0881,-0.7647 0.1176,-0.3529 -1.6468,-3.2349 -3.6172,1.8233 1.1763,2.3233 0.3235,0.0882 1.1175,-0.3823 0.3235,0.6764 -3.1467,1.5881 -0.3235,-0.647 0.9705,-0.7058 0.0882,-0.2941 -1.1763,-2.3233 -3.9702,2.0292 1.941,3.7937 0.3235,0.0882 1.5292,-0.4705 0.3823,0.7352 -2.2938,1.1763 -3.7055,-7.2932 0.5882,-0.3235 z m 13.8219,4.8817 2.8232,8.2344 -2.3232,0.794 -0.2941,-0.8234 1.3233,-0.6764 0.1765,-0.3529 -0.794,-2.2645 -0.2647,0.0883 -8.2343,2.8232 -0.1471,0.3235 0.2647,1.0292 -0.6176,0.2353 -1.3528,-3.9407 0.6176,-0.2059 0.4411,0.9705 0.2941,0.1765 0.2647,-0.0883 8.2637,-2.8526 -0.794,-2.235 -0.3235,-0.1765 -1.4704,0.2647 -0.2941,-0.8234 2.3233,-0.8234 0.1176,0.3234 z m 4.8818,15.6453 -1.1175,0.7646 -7.852,5.117 0,0.9411 -0.647,0.1176 -0.7352,-3.4995 0.6175,-0.1471 0.2941,0.9411 0.2353,0.0294 2.735,-1.7057 -0.7647,-3.7054 -3.2055,-0.4706 -0.2058,0.1765 0.147,1.0587 -0.647,0.147 -0.6469,-3.0585 0.6469,-0.147 0.3823,0.8528 1.294,0.2353 9.2636,1.3234 0.2059,1.0293 z m -6.4992,-0.9705 0.6763,3.1173 3.9996,-2.4997 -4.6759,-0.6176 z m -2.735,8.4108 2.7938,-0.2059 0.0588,0.9705 -1.7939,0.2941 -0.2941,0.2647 c -0.0882,0.2352 -0.1765,0.4999 -0.2059,0.794 -0.0294,0.2941 -0.0294,0.647 -0.0294,0.9411 0.0588,0.6175 0.2353,1.2057 0.5588,1.6762 0.3529,0.4706 0.8528,0.7058 1.5586,0.647 0.5294,-0.0294 0.9999,-0.2647 1.2646,-0.6764 0.2647,-0.4117 0.4999,-0.9116 0.647,-1.4116 0.0882,-0.2352 0.1764,-0.4705 0.2352,-0.6764 0.0294,-0.2058 0.1177,-0.4117 0.1471,-0.5881 0.2058,-0.5588 0.5587,-1.1176 0.941,-1.5881 0.3824,-0.4999 0.9411,-0.7646 1.5881,-0.8234 0.9999,-0.0588 1.7939,0.2647 2.3527,0.9999 0.5881,0.7352 0.9116,1.5586 0.9704,2.4409 0.0294,0.1176 0.0294,0.2352 0.0294,0.3529 0,0.1176 0,0.2646 0,0.3823 0,0.3529 -0.0588,0.7058 -0.0882,1.0587 -0.0588,0.3529 -0.147,0.7058 -0.1764,0.9998 l -2.4703,0.1765 -0.0588,-0.8234 1.4704,-0.3529 c 0.2058,-0.2059 0.3529,-0.5 0.4705,-0.7352 0.0882,-0.2647 0.1176,-0.5588 0.1176,-0.8529 0,0 0,-0.0588 0,-0.0588 0,0 -0.0294,-0.0588 -0.0294,-0.0588 -0.0588,-0.5294 -0.2941,-1.0587 -0.647,-1.4704 -0.3823,-0.4118 -0.8822,-0.6176 -1.4704,-0.5882 -0.4411,0.0588 -0.794,0.2059 -1.0293,0.4999 -0.2058,0.2647 -0.4411,0.6176 -0.5881,0.9705 -0.0294,0.1176 -0.0883,0.2353 -0.1177,0.3235 -0.0294,0.0882 -0.0882,0.2059 -0.1176,0.2941 -0.0588,0.1176 -0.0882,0.2941 -0.147,0.4117 -0.0589,0.147 -0.0883,0.3235 -0.1471,0.4411 -0.2058,0.647 -0.5293,1.2646 -0.9116,1.8233 -0.3529,0.5588 -0.9411,0.8823 -1.7057,0.9411 -0.9705,0.0882 -1.7645,-0.2647 -2.2939,-0.9116 -0.5587,-0.7058 -0.941,-1.4999 -1.0881,-2.3527 0,-0.1176 0,-0.2647 0,-0.3823 -0.0294,-0.1177 -0.0588,-0.2647 -0.0588,-0.3823 -0.0294,-0.1177 -0.0294,-0.2353 -0.0294,-0.3235 0,-0.1177 0,-0.2353 0,-0.3529 -0.0294,-0.3529 0,-0.7058 0.0588,-1.0587 0.0294,-0.3529 0.1176,-0.7352 0.2059,-1.0587 l 0.0294,0.0294 z m -120.192,13.3808 c 0,0.2941 -0.1176,0.5587 -0.2941,0.7058 -0.2058,0.1764 -0.4705,0.2646 -0.7058,0.2646 -0.2352,0.0295 -0.4999,-0.0588 -0.7058,-0.1764 -0.2058,-0.147 -0.3529,-0.4117 -0.3529,-0.7352 -0.0294,-0.2941 0.0883,-0.5588 0.2647,-0.7058 0.2059,-0.1765 0.4411,-0.2647 0.6764,-0.2647 0.2353,-0.0294 0.5,0.0294 0.7058,0.1471 0.2059,0.1764 0.3529,0.4411 0.3529,0.7352 l 0.0588,0.0294 z m 5.3523,9.5871 -0.6763,0.1176 -0.2647,-0.941 -0.2647,-0.2059 -5.6758,1.2057 c -0.147,0.0294 -0.3235,0.0589 -0.4411,0.0883 -0.1471,0.0294 -0.2941,0.1176 -0.4117,0.1176 -0.2353,0.0588 -0.4706,0.1764 -0.647,0.2647 -0.2059,0.1176 -0.4117,0.2941 -0.5588,0.4705 -0.2647,0.3235 -0.4411,0.7058 -0.4999,1.1469 -0.0588,0.4412 -0.0588,0.8823 0.0294,1.3528 0.0882,0.4117 0.2647,0.8529 0.4999,1.2352 0.2353,0.3823 0.5588,0.6469 0.9411,0.8234 0.2058,0.1176 0.4411,0.1764 0.6764,0.1764 0.2352,0.0295 0.4705,0.0589 0.7058,0 0.1176,-0.0294 0.2941,-0.0294 0.4117,-0.0588 0.147,-0.0294 0.3235,-0.0588 0.4705,-0.0882 l 5.5582,-1.1763 0.2059,-0.3235 -0.0589,-0.9411 0.647,-0.147 0.7058,3.2937 -0.6764,0.1176 -0.294,-0.9116 -0.3235,-0.2353 -5.7053,1.2058 c -0.1764,0.0294 -0.3529,0.0882 -0.4999,0.1176 -0.147,0.0294 -0.3529,0.0294 -0.4999,0.0588 -0.2941,0.0588 -0.647,0.0294 -0.9411,0 -0.3235,-0.0294 -0.6764,-0.1176 -0.9705,-0.2647 -0.3529,-0.2058 -0.7058,-0.5293 -0.941,-0.8822 -0.2647,-0.4117 -0.4706,-0.8529 -0.6176,-1.2646 -0.0294,-0.147 -0.0882,-0.2941 -0.1177,-0.4117 -0.0294,-0.147 -0.0882,-0.3235 -0.1176,-0.4411 -0.0294,-0.1177 -0.0588,-0.2941 -0.0882,-0.4117 -0.0294,-0.1177 -0.0294,-0.3235 -0.0588,-0.4706 -0.0294,-0.4705 0,-0.941 0.0588,-1.3822 0.0882,-0.4411 0.2647,-0.8528 0.4999,-1.2057 0.2353,-0.2647 0.4706,-0.4999 0.7646,-0.6176 0.2647,-0.147 0.5882,-0.3235 0.8529,-0.4117 0.1764,-0.0294 0.3529,-0.0588 0.4999,-0.0882 0.1765,-0.0294 0.3529,-0.1177 0.4706,-0.1471 l 5.8522,-1.2351 0.1471,-0.2941 -0.1177,-0.9117 0.647,-0.147 0.8234,3.8231 z m -7.8814,10.2047 0.4117,0.8528 0.3529,0.1765 8.2344,-2.8232 0.0882,-0.3235 -0.2647,-0.9705 0.647,-0.2059 0.9705,2.7938 -0.3823,0.1177 -5.9405,7.8226 7.0874,-2.4409 0.147,-0.3529 -0.2058,-0.9705 0.647,-0.2352 1.0881,3.1761 -0.647,0.2352 -0.4117,-0.8234 -0.3529,-0.2353 -0.8823,0.3235 -8.2343,2.8232 -0.3235,-0.9999 0.2353,-0.3529 6.3522,-8.3519 -7.5874,2.5879 -0.147,0.3823 0.1764,0.9705 -0.6176,0.2058 -1.0881,-3.1761 0.647,-0.2058 z m 4.2936,11.4986 0.5294,0.8529 0.2941,0.0882 0.0294,-0.0294 7.7932,-3.9701 0.0882,-0.2941 -0.3823,-0.9117 0.5882,-0.2941 1.8233,3.5585 -0.5882,0.294 -0.5293,-0.8822 -0.2941,-0.1471 -0.0882,0.0589 -7.7638,3.9407 -0.0883,0.3529 0.3823,0.941 -0.5587,0.2941 -1.8233,-3.5584 0.5881,-0.2941 z m 13.1456,2.8232 -0.5588,0.3529 -0.5882,-0.7352 -0.2646,-0.0588 -5.1171,6.911 8.3226,-1.9704 0.0882,-0.2647 -0.5,-0.8528 0.5588,-0.3823 1.7645,2.6761 -0.5882,0.3824 -0.6764,-0.7353 -1.2645,0.2647 -9.0284,2.0586 -0.5881,-0.9411 0.7352,-0.9998 5.4993,-7.5286 -0.3823,-0.9116 0.5882,-0.3529 1.9998,3.0878 z m -3.4408,12.4104 0.6764,0.6175 0.3529,0.0294 0.0294,0 6.411,-5.9993 -0.0294,-0.3235 -0.5588,-0.6763 0.5,-0.4706 5.1758,5.5582 -1.7056,1.588 -0.6176,-0.6763 0.8234,-1.0293 0.0294,-0.3823 -2.4997,-2.6762 -2.9702,2.7938 1.7645,1.8821 0.3529,0 0.9704,-0.6764 0.5,0.5588 -2.5879,2.4115 -0.5,-0.5588 0.7352,-0.9116 0.0294,-0.3529 -1.7645,-1.8822 -3.2643,3.0585 2.9114,3.1173 0.3529,-0.0294 1.3234,-0.8823 0.5588,0.6176 -1.8822,1.7645 -5.5876,-5.9993 0.4706,-0.4705 z m 16.3216,2.2056 c 0.7352,0.5881 1.3234,1.2939 1.7057,2.0586 0.3823,0.7352 0.1764,1.6174 -0.5588,2.5291 -0.4999,0.647 -1.1175,0.9705 -1.7057,0.9705 -0.6469,-0.0295 -1.3233,-0.1765 -1.9703,-0.4706 0.4705,0.6764 0.6764,1.2352 0.647,1.6175 -0.0588,0.4117 -0.1765,0.8528 -0.3823,1.2351 -0.1471,0.2059 -0.2647,0.5 -0.3823,0.7352 -0.1177,0.2647 -0.2353,0.6176 -0.2647,0.9411 -0.0294,0.4117 0.0294,0.794 0.2647,1.0293 0.2352,0.2941 0.4705,0.5588 0.7646,0.794 0,0 0.0294,0.0294 0.0294,0.0294 0,0 0.0294,0.0294 0.0294,0.0294 l -0.3529,0.4412 c -0.0588,-0.0294 -0.1765,-0.0883 -0.2059,-0.1177 -0.0882,-0.0588 -0.1764,-0.1176 -0.2352,-0.1764 -0.0883,-0.0882 -0.2353,-0.1765 -0.3529,-0.2353 -0.0883,-0.0882 -0.2353,-0.1764 -0.3235,-0.2353 -0.4117,-0.3529 -0.7058,-0.7352 -0.8529,-1.1469 -0.147,-0.4411 -0.0882,-1.0293 0.1765,-1.7057 0.147,-0.2646 0.2647,-0.5587 0.3529,-0.794 0.1176,-0.2058 0.1764,-0.4999 0.2352,-0.6764 0.2353,-0.5587 0.2941,-1.0881 0.1765,-1.4116 -0.0882,-0.3235 -0.4999,-0.8234 -1.1763,-1.3528 l -0.4706,-0.4411 -2.4115,2.9703 0.0589,0.3529 0.6469,0.6469 -0.4117,0.5 -2.9408,-2.3821 0.4117,-0.4999 0.7352,0.4705 0.3823,0.0294 0,-0.0294 5.5288,-6.8227 -0.0882,-0.3529 -0.647,-0.5882 0.4117,-0.5294 3.1761,2.588 z m -4.4112,3.0879 c 0,0 0.0294,0.0588 0.0294,0.0588 0.0294,0.0294 0.0882,0.0588 0.1176,0.0588 0.0882,0.0882 0.2059,0.2058 0.2941,0.2647 0.1176,0.0882 0.2352,0.147 0.3235,0.2352 0.4999,0.4117 1.0881,0.6764 1.6174,0.8529 0.5588,0.147 1.1764,-0.0588 1.7351,-0.647 l 0.0882,-0.1176 c 0.2353,-0.2647 0.3824,-0.6176 0.5,-0.9411 0.1176,-0.3823 0.147,-0.7646 0.0588,-1.1469 -0.0882,-0.2059 -0.2059,-0.4706 -0.4117,-0.6764 -0.1765,-0.2059 -0.3529,-0.4412 -0.5588,-0.5882 -0.0294,-0.0294 -0.0588,-0.0588 -0.0882,-0.0882 -0.0588,-0.0294 -0.0882,-0.0588 -0.1176,-0.0882 l -0.7646,-0.6176 -2.8232,3.4408 z m 4.1171,9.6459 1.3234,-2.4409 0.8528,0.4705 -0.7352,1.6763 0.0588,0.3823 c 0.1765,0.2059 0.3529,0.4117 0.5882,0.5882 0.2059,0.2058 0.5294,0.4117 0.7646,0.5587 0.5588,0.2941 1.147,0.4412 1.7057,0.4412 0.5882,-0.0294 1.0587,-0.3235 1.4116,-0.9411 0.2353,-0.4705 0.2941,-0.9705 0.1176,-1.441 -0.2352,-0.4411 -0.4999,-0.9411 -0.8528,-1.3234 -0.147,-0.1764 -0.2941,-0.3823 -0.4411,-0.5587 -0.1471,-0.1471 -0.2941,-0.3235 -0.4117,-0.4412 -0.3529,-0.4705 -0.6176,-1.0587 -0.8235,-1.6468 -0.2058,-0.5882 -0.1176,-1.2058 0.2059,-1.7645 0.4705,-0.8823 1.1763,-1.3822 2.1174,-1.4705 0.9116,-0.0882 1.7939,0.0883 2.5585,0.5294 0.0882,0.0588 0.2059,0.1176 0.2941,0.1764 0.1176,0.0589 0.2353,0.1471 0.3235,0.2059 0.2941,0.2059 0.5587,0.4411 0.8528,0.6764 0.2647,0.2059 0.5,0.4705 0.7352,0.6764 l -1.2057,2.1468 -0.7058,-0.4117 0.4999,-1.4116 c -0.0588,-0.2941 -0.2058,-0.5588 -0.3529,-0.794 -0.1764,-0.2059 -0.4117,-0.4118 -0.6764,-0.5588 0,0 -0.0588,-0.0294 -0.0588,-0.0294 0,0 -0.0294,-0.0294 -0.0294,-0.0294 -0.4999,-0.2353 -1.0587,-0.2941 -1.588,-0.2353 -0.5588,0.0882 -0.9999,0.3823 -1.2646,0.9117 -0.2353,0.3823 -0.2941,0.794 -0.1764,1.1175 0.1176,0.3529 0.294,0.7352 0.4999,1.0587 0.0588,0.0588 0.147,0.1764 0.2059,0.2353 0.0588,0.0882 0.1176,0.2058 0.1764,0.2646 0.0882,0.1177 0.2059,0.2647 0.2941,0.3529 0.0588,0.1177 0.1764,0.2647 0.2647,0.3823 0.4411,0.5294 0.7646,1.1176 1.0293,1.7351 0.2646,0.6176 0.2352,1.294 -0.1177,1.941 -0.4999,0.8822 -1.2057,1.3528 -2.0291,1.441 -0.8823,0.0882 -1.7645,-0.0294 -2.5586,-0.3823 -0.1176,-0.0588 -0.2352,-0.1177 -0.3235,-0.1765 -0.1176,-0.0588 -0.2646,-0.1176 -0.3529,-0.1764 -0.1176,-0.0588 -0.2058,-0.0882 -0.294,-0.1471 -0.0883,-0.0588 -0.1765,-0.147 -0.2941,-0.2058 -0.2941,-0.1471 -0.5882,-0.3823 -0.8823,-0.6176 -0.2647,-0.2059 -0.5293,-0.4999 -0.7352,-0.7352 l 0.0294,-0.0294 z m 7.8815,3.9407 0.9116,0.3823 0.2941,-0.147 0.0294,0 3.676,-7.9697 -0.0882,-0.2647 -0.8822,-0.4705 0.2941,-0.6176 3.6172,1.7057 -0.2941,0.5882 -0.9411,-0.3823 -0.3235,0.0882 -0.0588,0.0882 -3.676,7.8815 0.147,0.3234 0.9117,0.5294 -0.2941,0.5588 -3.6172,-1.6763 0.2941,-0.6176 z m 8.7636,-7.058 8.3226,2.5585 -0.7352,2.3527 -0.8234,-0.2647 0.2352,-1.441 -0.1764,-0.3529 -2.3233,-0.7058 -0.0882,0.2941 -2.5291,8.3226 0.1764,0.294 0.9705,0.4118 -0.1765,0.6175 -3.9701,-1.2351 0.2059,-0.6176 1.0293,0.2353 0.3235,-0.1471 0.0882,-0.2646 2.5291,-8.352 -2.2644,-0.6764 -0.3235,0.1764 -0.6764,1.3234 -0.8235,-0.2647 0.7058,-2.3526 0.3235,0.0882 z m 13.5573,2.8232 0.4117,1.294 2.7644,8.9695 0.9116,0.2647 -0.0588,0.647 -3.5878,-0.2647 0.0588,-0.647 0.9705,0 0.1176,-0.2353 -0.9116,-3.0878 -3.7643,-0.2647 -1.3528,2.9408 0.1471,0.2353 1.0292,0.147 -0.0294,0.647 -3.1172,-0.2058 0.0588,-0.647 0.9116,-0.1471 0.5882,-1.1763 3.7937,-8.5284 1.0587,0.0588 z m -2.7056,5.9699 3.1761,0.2353 -1.3234,-4.5583 -1.8527,4.323 z m 8.6755,4.8524 -0.2059,-2.7938 0.9705,-0.0588 0.2941,1.7939 0.2646,0.2941 c 0.2353,0.0882 0.5,0.1764 0.7941,0.2058 0.294,0.0294 0.6469,0.0294 0.941,0.0294 0.6176,-0.0588 1.2058,-0.2352 1.6763,-0.5587 0.4705,-0.3529 0.7058,-0.8529 0.647,-1.5587 -0.0294,-0.5293 -0.2647,-0.9999 -0.6764,-1.2645 -0.4117,-0.2647 -0.9117,-0.5 -1.4116,-0.647 -0.2353,-0.0882 -0.4705,-0.1765 -0.6764,-0.2353 -0.2059,-0.0294 -0.4117,-0.1176 -0.5882,-0.147 -0.5587,-0.2059 -1.1175,-0.5588 -1.588,-0.9411 -0.5,-0.3823 -0.7646,-0.9411 -0.8234,-1.588 -0.0589,-0.9999 0.2646,-1.794 0.9998,-2.3527 0.7352,-0.5882 1.5587,-0.9117 2.4409,-0.9705 0.1177,-0.0294 0.2353,-0.0294 0.3529,-0.0294 0.1177,0 0.2647,0 0.3823,0 0.3529,0 0.7058,0.0588 1.0587,0.0882 0.3529,0.0588 0.7058,0.1471 0.9999,0.1765 l 0.1765,2.4703 -0.8235,0.0588 -0.3529,-1.4704 c -0.2058,-0.2059 -0.4999,-0.3529 -0.7352,-0.4706 -0.2646,-0.0882 -0.5587,-0.1176 -0.8528,-0.1176 0,0 -0.0588,0 -0.0588,0 0,0 -0.0588,0.0294 -0.0588,0.0294 -0.5294,0.0588 -1.0587,0.2941 -1.4705,0.647 -0.4117,0.3823 -0.6175,0.8823 -0.5881,1.4704 0.0588,0.4411 0.2058,0.794 0.4999,1.0293 0.2647,0.2059 0.6176,0.4411 0.9705,0.5882 0.1176,0.0294 0.2353,0.0882 0.3235,0.1176 0.0882,0.0294 0.2058,0.0882 0.2941,0.1176 0.1176,0.0589 0.294,0.0883 0.4117,0.1471 0.147,0.0588 0.3235,0.0882 0.4411,0.147 0.647,0.2059 1.2646,0.5294 1.8233,0.9117 0.5588,0.3529 0.8823,0.9411 0.9411,1.7057 0.0882,0.9704 -0.2647,1.7645 -0.9117,2.2938 -0.7058,0.5588 -1.4998,0.9411 -2.3526,1.0881 -0.1177,0 -0.2647,0 -0.3823,0 -0.1177,0.0294 -0.2647,0.0588 -0.3824,0.0588 -0.1176,0.0295 -0.2352,0.0295 -0.3234,0.0295 -0.1177,0 -0.2353,0 -0.3529,0 -0.3529,0.0294 -0.7058,0 -1.0587,-0.0589 -0.3529,-0.0294 -0.7353,-0.1176 -1.0587,-0.2058 l 0.0294,-0.0294 z m 15.6746,-13.2632 0.2647,0.6176 -0.8823,0.4117 -0.0882,0.2353 5.7052,6.4404 -0.2058,-8.5284 -0.2353,-0.1471 -0.9705,0.2941 -0.2352,-0.6176 2.9996,-1.1469 0.2353,0.6176 -0.8529,0.5293 -0.0294,1.294 0.1471,9.2342 -1.0293,0.4117 -0.8529,-0.941 -6.2051,-6.9404 -0.9411,0.1765 -0.2353,-0.6176 3.4114,-1.3234 z m 11.6163,5.9993 0.8234,-0.5587 0.0588,-0.2941 0,-0.0294 -4.3818,-7.5874 -0.2941,-0.0882 -0.8822,0.4705 -0.3529,-0.5881 3.4702,-1.9998 0.3234,0.5882 -0.8528,0.5587 -0.1176,0.2941 0.0294,0.0882 4.3524,7.5286 0.3529,0.0882 0.9411,-0.4411 0.3235,0.5587 -3.4702,1.9998 -0.3235,-0.5882 z m 5.0876,-3.029 0.7058,-0.5882 0.1177,-0.3529 -0.0294,-0.0294 -5.0289,-7.1757 -0.3529,0 -0.794,0.5 -0.3823,-0.5588 3.1467,-2.2056 0.3823,0.5588 -0.6764,0.5587 -0.1176,0.3235 0.147,0.2353 5.0288,7.1756 2.9409,-2.088 0.0588,-0.3529 -0.9117,-1.7057 0.7058,-0.4705 1.6763,2.3821 -6.264,4.3524 -0.3529,-0.5587 z m 7.705,-5.2935 0.5882,-0.7647 0,-0.3823 -6.1464,-6.1463 -0.3234,0.0294 -0.7647,0.6764 -0.4705,-0.5 2.088,-2.0879 0.2941,0.2646 9.6165,1.941 -5.2935,-5.2935 -0.3823,0 -0.794,0.6176 -0.4706,-0.5 2.3527,-2.3527 0.4999,0.4706 -0.5587,0.7352 -0.0588,0.4117 0.6764,0.6764 6.1463,6.1463 -0.7352,0.7352 -0.4411,-0.0588 -10.2929,-2.0586 5.6758,5.6759 0.3823,0 0.794,-0.5882 0.4705,0.4411 -2.382,2.3821 -0.4706,-0.4705 z m 8.5284,-8.7343 0.5,-0.7646 0,-0.3529 -0.0294,-0.0294 -6.9992,-5.2641 -0.3235,0.0882 -0.5882,0.6764 -0.5293,-0.4117 4.5877,-6.0876 1.8527,1.3822 -0.5882,0.7646 -1.1469,-0.6469 -0.3823,0.0294 -2.1762,2.9408 3.2349,2.4409 1.5586,-2.088 -0.0882,-0.3529 -0.794,-0.8234 0.4411,-0.5882 2.8232,2.1174 -0.4411,0.5882 -1.0587,-0.5588 -0.3235,0.0588 -1.5586,2.0586 3.5584,2.6762 2.5879,-3.382 -0.0882,-0.3529 -1.0881,-1.1763 0.4705,-0.647 2.088,1.5586 -4.9406,6.5287 -0.5588,-0.3823 z m 6.117,-8.1167 0.3529,-0.9117 -0.0883,-0.3529 -7.6167,-4.2348 -0.2941,0.1471 -0.5588,0.8528 -0.5881,-0.3529 1.441,-2.5879 0.3235,0.1764 9.793,-0.794 -6.5581,-3.6172 -0.3529,0.0882 -0.5882,0.8234 -0.5881,-0.3235 1.6174,-2.9408 0.5882,0.3235 -0.3235,0.8528 0.0588,0.4118 0.8234,0.4705 7.6168,4.2054 -0.4999,0.941 -0.4412,0.0295 -10.4693,0.8822 7.0286,3.8819 0.3823,-0.1176 0.5881,-0.7646 0.5588,0.294 -1.6175,2.9409 -0.5881,-0.3235 z m 5.9699,-10.8517 -2.6174,-1.0293 0.3529,-0.8822 1.7645,0.4999 0.3529,-0.0882 c 0.2059,-0.1765 0.3823,-0.3823 0.5588,-0.647 0.1764,-0.2353 0.3235,-0.5588 0.4411,-0.8234 0.2353,-0.5882 0.2941,-1.1764 0.2353,-1.7645 -0.0883,-0.5588 -0.4706,-0.9999 -1.1175,-1.2646 -0.5,-0.2059 -0.9999,-0.1764 -1.4116,0.0588 -0.4412,0.2647 -0.8823,0.5882 -1.2352,0.9999 -0.147,0.147 -0.3529,0.3235 -0.4999,0.4999 -0.1177,0.1765 -0.2941,0.3235 -0.4118,0.4706 -0.4117,0.3823 -0.9704,0.7352 -1.4998,0.9999 -0.5587,0.294 -1.2057,0.2646 -1.7939,0.0294 -0.9411,-0.3529 -1.4998,-0.9999 -1.7057,-1.9116 -0.2058,-0.9116 -0.1176,-1.7939 0.2059,-2.6173 0.0588,-0.1176 0.0882,-0.2059 0.147,-0.3235 0.0294,-0.1176 0.1177,-0.2353 0.1471,-0.3529 0.1764,-0.3235 0.3823,-0.6176 0.5587,-0.9117 0.2059,-0.294 0.4412,-0.5587 0.5882,-0.8234 l 2.2938,0.9411 -0.294,0.7646 -1.4999,-0.3529 c -0.2646,0.1176 -0.5293,0.2941 -0.7352,0.4705 -0.2058,0.2059 -0.3529,0.4411 -0.4705,0.7352 0,0 -0.0294,0.0588 -0.0294,0.0588 0,0 0,0.0295 0,0.0295 -0.1765,0.4999 -0.1765,1.0881 -0.0588,1.6174 0.1764,0.5294 0.4999,0.9411 1.0587,1.1469 0.4117,0.1765 0.8234,0.1765 1.1469,0.0294 0.2941,-0.1764 0.6764,-0.3823 0.9705,-0.6175 0.0588,-0.0883 0.147,-0.1765 0.2058,-0.2353 0.0883,-0.0588 0.2059,-0.147 0.2647,-0.2353 0.0882,-0.0882 0.2059,-0.2058 0.3235,-0.294 0.0882,-0.0883 0.2059,-0.2353 0.2941,-0.3235 0.4999,-0.5 1.0587,-0.9117 1.6174,-1.2646 0.5882,-0.3235 1.2352,-0.3823 1.941,-0.0882 0.9411,0.3823 1.4998,0.9999 1.6763,1.8527 0.1764,0.8528 0.1764,1.7351 -0.0589,2.5585 -0.0294,0.1177 -0.0882,0.2647 -0.147,0.3529 -0.0294,0.1177 -0.0588,0.2647 -0.1176,0.3823 -0.0294,0.0883 -0.0883,0.2059 -0.1177,0.2941 -0.0294,0.1177 -0.1176,0.2059 -0.147,0.3235 -0.147,0.3235 -0.3235,0.6176 -0.5294,0.9411 -0.1764,0.2941 -0.4117,0.6176 -0.6469,0.8234 l 0,-0.0294 z m 2.6761,-8.2931 0.1765,-0.9705 -0.1765,-0.2647 -0.0294,0 -8.499,-2.1174 -0.2647,0.147 -0.2941,0.9705 -0.6469,-0.1764 0.9704,-3.8819 0.647,0.1764 -0.1764,0.9999 0.1176,0.2941 0.0882,0.0294 8.4402,2.1174 0.2941,-0.2059 0.3529,-0.9704 0.6176,0.147 -0.9705,3.8819 -0.647,-0.1764 z m 1.9704,-5.6759 -2.7644,-0.4117 0.1764,-0.941 1.8234,0.1176 0.3235,-0.2059 c 0.147,-0.2058 0.294,-0.4411 0.3823,-0.7352 0.1176,-0.2941 0.1764,-0.6175 0.2352,-0.9116 0.0883,-0.6176 0.0294,-1.2058 -0.1764,-1.7645 -0.2059,-0.5294 -0.647,-0.8823 -1.3528,-0.9705 -0.5294,-0.0882 -1.0293,0.0294 -1.3822,0.3529 -0.3529,0.3823 -0.7058,0.794 -0.9705,1.2646 -0.1176,0.1764 -0.2646,0.4117 -0.3529,0.5881 -0.0882,0.2059 -0.2058,0.3823 -0.2941,0.5588 -0.3234,0.4705 -0.7646,0.941 -1.2645,1.3234 -0.4705,0.3823 -1.0881,0.5293 -1.7351,0.4411 -0.9705,-0.1765 -1.6763,-0.6764 -2.088,-1.4998 -0.3823,-0.8529 -0.5293,-1.7351 -0.3823,-2.588 0.0294,-0.1176 0.0294,-0.2352 0.0588,-0.3529 0.0294,-0.1176 0.0588,-0.2647 0.0882,-0.3823 0.0883,-0.3235 0.2353,-0.6764 0.3529,-0.9999 0.0883,-0.3529 0.2647,-0.647 0.3823,-0.941 l 2.4409,0.3823 -0.147,0.8234 -1.4998,0 c -0.2353,0.1765 -0.4706,0.4117 -0.6176,0.6176 -0.147,0.2352 -0.2647,0.5293 -0.2941,0.8234 0,0 -0.0294,0.0588 -0.0294,0.0588 0,0 0,0.0588 0,0.0588 -0.0588,0.5294 0.0588,1.0587 0.3235,1.5587 0.2647,0.4999 0.7058,0.794 1.2646,0.8822 0.4411,0.0883 0.8528,0 1.1175,-0.2352 0.2941,-0.2353 0.5881,-0.5 0.8234,-0.8235 0.0294,-0.0882 0.1176,-0.1764 0.147,-0.2646 0.0883,-0.0883 0.1765,-0.2059 0.2059,-0.2647 0.0882,-0.1176 0.147,-0.2941 0.2353,-0.3823 0.0882,-0.1177 0.1764,-0.2647 0.2352,-0.3823 0.3823,-0.5882 0.8235,-1.1175 1.294,-1.5881 0.4999,-0.4411 1.1175,-0.647 1.8821,-0.5293 0.9705,0.147 1.6763,0.647 2.0292,1.4116 0.3823,0.8234 0.5588,1.6762 0.5294,2.5291 -0.0294,0.1176 -0.0589,0.2647 -0.0589,0.3823 -0.0294,0.1176 -0.0294,0.2647 -0.0294,0.3823 -0.0294,0.1176 -0.0294,0.2353 -0.0588,0.3235 -0.0294,0.1176 -0.0588,0.2353 -0.0882,0.3529 -0.0588,0.3235 -0.1765,0.6764 -0.2647,0.9999 -0.1176,0.3529 -0.2941,0.7058 -0.4705,0.9705 l -0.0294,-0.0295 z m -4.3819,-14.6453 c 0.0294,-0.2941 0.1765,-0.5588 0.3823,-0.6764 0.2059,-0.147 0.4706,-0.2058 0.7058,-0.1764 0.2353,0 0.5,0.1176 0.6764,0.2646 0.2059,0.1765 0.2941,0.4412 0.2941,0.7646 -0.0294,0.2941 -0.1764,0.5588 -0.3823,0.6764 -0.2058,0.1471 -0.4411,0.2059 -0.6764,0.1765 -0.2352,0 -0.4999,-0.0882 -0.7058,-0.2353 -0.1764,-0.2058 -0.2941,-0.4705 -0.2647,-0.7646 l -0.0294,-0.0294 z M 72.6324,57.7306 c 0.2941,0 0.5588,0.147 0.7058,0.3529 0.1765,0.2353 0.2647,0.4999 0.2647,0.7352 0,0.2647 -0.0882,0.5294 -0.2352,0.7352 -0.1765,0.2353 -0.4412,0.3529 -0.7353,0.3529 -0.3529,0 -0.6175,-0.1176 -0.7646,-0.3235 -0.1764,-0.2058 -0.2646,-0.4705 -0.2646,-0.7352 0,-0.2647 0.0882,-0.5293 0.2352,-0.7352 0.1765,-0.2353 0.4411,-0.3529 0.794,-0.3529 l 0,-0.0294 z m 10.1165,-4.823 -0.0294,1.294 0,9.2342 0.2353,0.2353 1.8233,0.0588 0,0.7058 -5.6758,0 0,-0.7058 1.9409,-0.1176 0.2059,-0.2647 0,-9.0872 -2.6468,0.5 0,-0.7058 3.6761,-1.1176 0.4705,-0.0294 z m 9.5577,0.2353 -0.0294,1.294 -4.97,0 0,3.3819 c 0.2941,-0.0588 0.647,-0.1176 0.9411,-0.147 0.294,-0.0294 0.6175,-0.0588 0.8528,-0.0588 1.1763,0 2.1174,0.3235 2.7056,0.9704 0.6175,0.647 0.941,1.4116 0.941,2.2057 0,0 0,0.0294 0,0.0294 0,0 0,0.0294 0,0.0294 0,1.2351 -0.4705,2.1762 -1.3527,2.7644 -0.8823,0.6175 -1.9116,0.941 -2.9997,0.941 -0.147,0 -0.3529,0 -0.5293,0 -0.2059,0 -0.4412,-0.0588 -0.647,-0.0882 -0.4412,-0.0588 -0.8823,-0.2353 -1.2352,-0.4411 -0.3529,-0.2059 -0.5587,-0.5588 -0.5587,-1.0293 0,-0.2353 0.1176,-0.4705 0.2941,-0.5882 0.1764,-0.1176 0.4411,-0.2058 0.7352,-0.2058 l 0.3529,-0.0294 0.6175,1.441 c 0.1765,0.0588 0.3823,0.147 0.5588,0.1764 0.1764,0.0588 0.3823,0.0882 0.5293,0.0882 0.8235,0 1.4999,-0.294 1.9704,-0.8234 0.4705,-0.5587 0.7352,-1.2351 0.7352,-1.9998 0,-0.0588 0,-0.147 0,-0.2058 0,-0.0588 -0.0294,-0.1765 -0.0294,-0.2353 -0.1176,-0.7352 -0.4705,-1.2645 -1.0587,-1.4998 -0.5882,-0.2647 -1.2646,-0.4411 -1.9704,-0.4411 -0.0588,0 -0.147,-0.0294 -0.2058,-0.0294 -0.0588,0 -0.1471,0 -0.2059,0 -0.2647,0 -0.5293,0 -0.7646,0 -0.2353,0 -0.4999,0.0588 -0.7058,0.0588 l 0,-5.5582 6.0287,0 z m 8.8813,0 0,0.7058 -0.8822,1.5881 -4.7348,9.2342 0,0.3235 -1.4116,0 0.7647,-1.3822 4.7347,-9.1754 -5.1759,0 -0.2646,1.5292 -0.8235,0 0,-2.8232 7.7932,0 z m 1.5881,11.4104 c 0,0 0.0294,-0.0294 0.0294,-0.0294 0,0 0.0294,-0.0294 0.0294,-0.0294 1.1469,-0.5293 2.1468,-1.1469 2.9114,-1.7939 0.794,-0.647 1.4704,-1.6174 1.9998,-2.7938 -0.4705,0.2353 -0.9705,0.4117 -1.3822,0.4706 -0.4411,0.0882 -0.8528,0.147 -1.2057,0.147 -1.1176,0 -1.9704,-0.3529 -2.5292,-1.0587 -0.5587,-0.7058 -0.8528,-1.5586 -0.8528,-2.4409 0,-0.0294 0,-0.0882 0,-0.1176 0,-0.0294 0,-0.0883 0,-0.1177 0.0588,-0.941 0.4411,-1.8527 1.0881,-2.6173 0.6764,-0.7646 1.6763,-1.1763 2.9702,-1.1763 1.2058,0 2.1469,0.4117 2.7938,1.2351 0.647,0.8234 0.9999,1.8527 0.9999,3.0291 0,1.8821 -0.647,3.5584 -1.9409,4.97 -1.294,1.441 -2.7938,2.4703 -4.4995,3.0584 l -0.4117,-0.7352 z m 5.1758,-5.4699 c 0,-0.1176 0.0589,-0.2941 0.0589,-0.4411 0.0294,-0.1471 0.0882,-0.3235 0.0882,-0.4706 0,-0.1764 0.0294,-0.3529 0.0294,-0.4999 0,-0.1471 0.0294,-0.3235 0.0294,-0.4411 0,-0.0883 0,-0.2059 0,-0.2941 0,-0.0882 -0.0294,-0.2059 -0.0294,-0.2941 0,-0.2059 -0.0588,-0.4411 -0.0588,-0.6176 -0.0294,-0.1764 -0.1177,-0.3823 -0.1765,-0.5587 -0.147,-0.5 -0.4411,-0.9117 -0.8528,-1.2058 -0.4117,-0.2941 -0.9117,-0.4411 -1.3822,-0.4411 -0.0294,0 -0.0882,0 -0.1176,0 -0.0589,0 -0.1177,0 -0.1471,0 -0.1764,0 -0.3529,0.0588 -0.5293,0.1176 -0.1765,0.0588 -0.3529,0.2059 -0.5,0.3235 -0.3529,0.2941 -0.6175,0.6764 -0.794,1.0881 -0.1764,0.4117 -0.2941,0.8823 -0.2941,1.3528 0,0 0,0.0588 0,0.0588 0,0 0,0.0588 0,0.0588 0,0.7058 0.2059,1.3822 0.6176,1.9704 0.4117,0.5882 1.0293,0.8823 1.8527,0.8823 0.2941,0 0.6764,-0.0589 1.0293,-0.1177 0.3529,-0.0882 0.7646,-0.2647 1.1469,-0.4411 l 0.0294,-0.0294 z m 7.7344,-1.3528 c 0.2941,0 0.5588,0.147 0.7058,0.3529 0.1765,0.2353 0.2647,0.4999 0.2647,0.7352 0,0.2647 -0.0882,0.5294 -0.2353,0.7352 -0.1764,0.2353 -0.4411,0.3529 -0.7352,0.3529 -0.3529,0 -0.6175,-0.1176 -0.7646,-0.3235 -0.1764,-0.2058 -0.2647,-0.4705 -0.2647,-0.7352 0,-0.2647 0.0883,-0.5293 0.2353,-0.7352 0.1765,-0.2353 0.4411,-0.3529 0.794,-0.3529 l 0,-0.0294 z m -51.4164,92.5506 c -5.3975,-6.4878 -9.2353,-15.0901 -9.515,-25.0126 l 75.923,0 c -0.6281,1.4713 -1.8773,3.0432 -3.3178,4.1513 0.5342,0 2.1367,-0.5342 2.2773,0 -3.0926,0.9559 -6.5508,2.3335 -9.1655,4.1048 0.6466,-0.0844 1.7712,-0.3093 2.1649,0 -0.6186,0.3092 -2.1649,0.6185 -3.2614,1.0402 -1.0684,0.3936 -2.4741,1.1809 -3.4863,1.6307 0.6748,1.1246 1.3214,2.5304 1.4901,3.5144 -0.0562,1.0402 -0.0843,1.5182 -0.6466,2.2211 -0.0844,-1.4901 -0.6185,-4.1329 -1.8275,-5.2575 -1.1527,0.3373 -2.446,0.5623 -3.6831,0.7591 1.3777,3.5987 1.8837,8.5188 1.0684,11.3584 4.0205,-1.6306 8.4345,-3.8517 12.2301,-6.0728 0.3373,-0.1687 0.7028,-0.478 1.2089,-0.7872 -1.0402,0.253 -2.2211,0.4498 -3.3738,0.4498 0.0843,-0.253 0.5342,-0.3936 0.8716,-0.5623 1.6588,-0.5342 2.5022,-0.4779 4.0767,-1.1246 0.5341,-0.1968 0.6747,-0.2811 1.0683,-0.6185 1.7107,-3.3932 3.3651,-9.8911 3.3736,-14.8069 l 1.4799,0 c -0.1847,9.6147 -2.9296,16.3864 -8.0586,23.5507 -14.8729,19.6524 -45.3496,19.9336 -60.8972,1.4619 z M 54.735,123.7305 c -0.1034,-16.9571 0.1162,-34.2102 0.1162,-51.2437 l 78.413,0.0281 0,42.2289 c 0,2.9243 -0.0249,6.4905 -0.028,8.9867 l -24.7732,0 c -0.5017,-1.371 -0.3599,-2.0991 0.4254,-2.3516 l 2.2773,-7.8722 c -1.9962,-1.9399 -2.5585,-5.7636 -1.1527,-8.6313 -0.8716,0.2811 -1.6307,0.2811 -2.3898,0.3936 0.0281,0.7029 0.4498,2.3336 -0.3093,2.3617 -0.731,0.0281 -0.5904,-1.4058 -0.7872,-2.2773 -0.8434,0 -1.8837,0.0281 -2.6428,-0.0844 0.0562,0.6185 0.478,2.5023 -0.3655,2.4741 -0.8434,0 -0.4498,-1.5463 -0.6748,-2.4741 -1.6306,-0.1687 -3.3457,-0.4217 -4.9482,-0.8153 -0.5342,1.0683 -0.8716,3.7955 -0.984,5.3137 l -2.2774,-2.3335 c -0.3655,0.5623 -1.0121,1.8274 -1.5182,2.2773 -0.3374,-0.8997 -0.5623,-1.2933 -1.0683,-1.8837 -0.3093,0.8434 -0.3093,1.5463 -0.2812,2.4179 3.7674,0.4498 7.3099,0.8997 10.9087,-0.6186 -0.2812,-0.1124 -0.8435,-0.8715 -0.6186,-0.9278 0.2249,-0.0562 0.4499,0.1406 0.6748,0.1969 1.968,1.6869 3.4862,3.2613 5.37,4.7514 0.8715,1.0965 0.7872,3.2614 -0.0563,5.37 -0.6735,1.6839 -1.7672,2.8076 -1.883,4.7132 l -2.5791,0 c -0.4476,-1.527 -0.0809,-2.1857 0.7228,-2.3797 0.3374,-1.7431 1.2371,-4.414 2.3336,-6.2415 -0.3374,-0.5623 -0.731,-1.5745 -0.8716,-2.4179 l -2.4741,-2.446 c -0.5623,0.3092 -1.3214,0.5623 -1.8556,0.731 l 2.2492,2.6428 c 1.8759,3.4438 -2.0473,7.0549 -2.6075,10.1113 l -46.3446,0 z m 27.669,32.7361 c -0.3655,0 -0.6748,-0.1687 -0.8716,-0.6186 l 0,-2.699 c 0.8153,0 1.4901,0.2249 2.0805,0.6747 0.6186,0.5624 1.0684,1.2933 1.0684,2.4742 -0.731,0.0843 -1.5463,0.1687 -2.2773,0.1687 z m 3.0364,-0.225 c -0.0281,-1.0402 -0.4217,-2.4179 -1.3776,-3.0645 -0.6467,-0.478 -1.7151,-0.7591 -2.5304,-0.6748 L 81.42,137.3483 c 2.2492,0.0281 3.8517,-1.0684 3.7393,-3.7674 l 3.7674,-0.4217 c -0.0281,1.8556 1.3776,3.4862 3.4019,3.4862 l 0.4217,14.8729 c -2.4741,0.7029 -3.2613,2.0524 -3.0926,4.2454 l -4.2173,0.4779 z m -2.805,-0.6505 c -0.6748,-0.3374 -0.3374,-1.3776 0.4498,-1.1246 0.6748,0.3093 0.2812,1.3777 -0.4498,1.1246 z m 7.8095,0.004 c -0.0562,-1.5182 0.2249,-2.6709 2.2492,-3.2332 0.0843,0.0281 0.1406,2.8958 0.1406,2.952 -0.7029,0.1687 -1.6307,0.1969 -2.3898,0.2812 z m 3.177,-0.3374 -0.0281,-0.731 c 0.8997,-0.1124 1.8275,-0.4498 2.5585,-1.0402 0.1968,0.506 -0.1687,0.9278 -0.3937,1.0965 -0.3373,0.3092 -1.6869,0.6747 -2.1367,0.6747 z m -2.1739,-0.4805 c -0.6186,-0.3655 -0.1406,-1.2652 0.5342,-0.9278 0.5623,0.253 0.1687,1.2652 -0.5342,0.9278 z m -10.7872,-0.3067 c -0.1686,-0.253 -0.4217,-0.3936 -0.7309,-0.6467 l 0.0562,-20.2428 c 0,-0.5904 0.1124,-0.984 0.5061,-1.0122 1.7993,-0.1686 4.2734,-0.4217 6.3258,-0.7309 2.1087,-0.3093 4.6671,-0.5342 6.832,-0.8435 0.1687,-0.1968 0.1125,-0.3936 -0.1125,-0.5904 l -13.5514,1.5744 c -0.3655,0.1687 -0.7029,0.478 -0.7029,0.6186 0,0.3373 -0.0562,1.2933 -0.0562,1.5744 0,6.7195 -0.0281,13.0454 -0.0844,19.3713 l -0.7872,-0.1687 c -0.1125,-6.3259 -0.0562,-13.692 -0.0562,-20.524 0,-0.3936 -0.0563,-1.0684 0.0562,-1.3214 0.1125,-0.253 0.7872,-0.253 0.7872,-0.253 4.6952,-0.478 9.531,-1.1528 14.2544,-1.7432 0.2249,-0.0843 0.1968,-0.3655 -0.0844,-0.5342 -4.639,0.5061 -10.1495,0.9278 -14.6479,1.462 -0.1687,0 -0.8435,0.1125 -1.0684,0.4217 -0.2249,0.3093 -0.1968,0.956 -0.1968,1.1809 0,7.0006 0.253,14.2262 0.0843,21.3112 l -0.6466,0 c -0.0281,-7.2256 -0.1125,-16.3349 -0.1125,-22.5202 0,-0.6466 0.225,-1.237 1.1809,-1.2933 5.8198,-0.506 9.4185,-0.6747 14.1137,-1.2651 1.3777,0 2.5866,0.1405 3.2333,1.1527 0.506,0.5904 0.1968,1.715 -0.7029,2.1086 -0.5623,0.253 -1.1527,0.3374 -1.8275,0.4217 -3.6831,0.4218 -7.3661,0.8435 -11.0492,1.2652 -0.5342,0.0844 -0.8154,0.4499 -0.9559,1.0122 l -0.0563,20.2147 z m 12.9049,-0.8435 -0.0563,-4.892 c 0.2531,0.0562 0.3655,-0.0281 0.5061,0.3936 0.0844,0.225 0.5904,0.3093 1.0403,0.5061 0.253,0.3655 0.5904,0.3936 0.8715,0.4498 -0.0281,0.5061 0,1.8838 0,2.4461 0,0.7028 -1.9118,1.1246 -2.3616,1.0964 z m 2.8115,-4.0204 c -0.1406,-0.0281 -0.3936,0.0562 -0.5342,-0.253 0.6185,-0.3374 2.5585,-0.8997 3.5706,-1.4058 1.0684,-0.478 1.7713,-0.9559 2.7553,-1.6307 0.0843,-0.1687 0.0281,-0.4217 -0.3374,-0.3374 -0.8997,0.5623 -1.6307,0.8716 -2.5866,1.3496 -1.4057,0.6466 -2.446,1.0402 -3.7955,1.4338 -0.3936,0.0844 -0.8154,-0.0281 -0.8997,-0.2249 0.1406,-0.0843 -0.0562,-0.1687 0.4217,-0.3936 0.5904,-0.3093 2.2211,-0.8434 3.3457,-1.4339 1.0965,-0.5623 1.9681,-1.0402 2.8678,-1.715 0.0843,-0.2249 -0.0282,-0.3655 -0.3374,-0.253 -2.193,1.3214 -3.8799,2.0243 -6.3259,2.9239 -0.3374,0.1125 -0.8154,0.1969 -1.0403,0.0844 l 0,-0.5904 3.2614,-1.715 c 0.984,-0.478 1.7431,-0.956 2.7552,-1.7151 l 2.5023,-2.1929 0,-0.3655 c -1.7431,0.2811 -3.6269,0.8153 -5.623,0 l 0,-0.2531 c 0.9559,-0.253 1.9961,-0.3936 2.9239,-0.6466 1.5745,-0.4217 3.0365,-1.1527 4.7796,-1.5463 1.9118,-0.2812 4.3297,-0.3093 6.4384,-0.5342 0.5623,1.0965 0.8996,2.4179 0.984,4.2735 -3.7393,1.5182 -6.2697,5.8479 -10.6837,6.4383 1.0402,-0.5061 1.9118,-1.1246 2.4179,-1.4901 0.0281,-0.1968 -0.0844,-0.253 -0.2812,-0.253 -1.5744,0.8434 -2.5585,1.5463 -4.0486,1.9399 l -2.5303,0.5061 z m 14.4511,-0.4499 c -0.8434,-1.3495 -1.3495,-2.952 -1.3776,-4.5265 0.4779,-0.4779 1.2652,-1.0965 2.1648,-1.4339 0.1969,1.6026 0.1969,4.0486 -0.1405,5.6231 -0.1125,0.506 -0.3936,0.4779 -0.6467,0.3373 z m -23.182,-1.8772 c -0.9278,0.1406 -1.5182,-0.8997 -1.5744,-1.8275 -1.2652,0.0563 -1.9119,-0.253 -1.9962,-1.3495 -0.0843,-1.0965 1.1246,-1.5182 1.7713,-1.6307 -0.3655,-1.5182 1.0964,-2.1648 2.2773,-1.6025 0.3092,0.3092 0.4779,0.8715 0.4498,1.4338 0.9559,0.0563 1.6588,0.2812 1.6869,1.3777 0.1125,0.9278 -0.7591,1.3214 -1.4901,1.3214 0,1.0965 -0.1968,2.1367 -1.1246,2.2773 z m 5.7226,-0.878 -0.1125,-4.386 c 0.6748,-0.0281 1.6026,-0.3093 2.1086,-0.6185 l 0.0563,3.8517 -2.0524,1.1528 z m -6.7066,-1.5961 c -0.478,-0.1968 -1.6026,0.3092 -1.8556,-0.5623 0.1125,-1.1246 1.0965,-1.0122 1.7994,-1.1527 -0.0844,-0.8154 -0.5342,-1.4901 0.6466,-1.7713 0.9559,0.0844 0.5904,0.8997 0.6748,1.4901 0.6185,0.0281 1.6869,-0.1125 1.715,0.8153 0.0281,0.9278 -0.8716,0.6467 -1.5463,0.9278 0.0281,0.8154 0.2811,1.8556 -0.5061,1.9681 -1.1246,0.1125 -0.6185,-1.2652 -0.9278,-1.715 z m 6.5941,-3.549 c -0.0562,-0.2249 -0.0843,-0.7029 -0.0562,-0.9559 0.8434,-0.1687 1.6306,-0.3936 2.3616,-1.0121 0.2531,0.3373 0.3093,0.8153 0,1.1246 -0.7028,0.506 -1.237,0.7028 -2.3054,0.8434 z m -0.1406,-1.6869 0,-4.8639 c 1.0965,-0.1687 1.6869,-0.3655 2.3617,-0.9278 l 0,4.3578 c -0.253,0.8997 -1.2371,1.1246 -2.3617,1.4339 z m -11.724,-2.8958 c 0,-0.5905 0.0282,-1.1247 0,-1.8556 -0.0281,-0.5061 0.0844,-0.9278 0.6467,-0.9841 0.5623,-0.0562 1.5463,-0.1124 2.4179,-0.1687 -0.0281,2.0243 -0.8154,3.0084 -3.0646,3.0084 z m 10.262,-0.8435 c -1.1246,-0.1968 -1.968,-1.4901 -1.968,-2.699 0.7591,-0.1125 1.7712,-0.1406 2.6147,-0.225 l 0,2.9521 -0.6467,-0.0281 z m -9.021,-0.276 c -0.731,-0.3092 -0.2531,-1.1246 0.3092,-0.9278 0.7029,0.2531 0.3093,1.209 -0.3092,0.9278 z m 8.428,-0.8728 c -0.5623,-0.0844 -0.3936,-1.1528 0.2531,-0.8997 0.5623,0.1687 0.3092,1.0402 -0.2531,0.8997 z m 2.0269,-0.763 c 0,-0.2249 -0.0843,-1.1527 0.0281,-1.1809 0.6467,-0.1124 1.7713,-0.2811 2.3336,-1.0402 0.2811,0.6466 -0.0281,1.1808 -0.5623,1.5744 -0.4499,0.3093 -1.3496,0.6186 -1.7994,0.6467 z M 72.9854,113.563 c -0.0281,-1.0403 0.3374,-1.9119 0.6748,-2.5866 1.0684,-1.0965 2.446,-2.3336 3.43,-3.2614 0.3655,-0.3936 0.8154,-0.8715 1.3496,-1.237 l 6.1572,-0.4218 0.0281,-0.1968 c -0.3936,-0.253 -1.1246,-0.1968 -1.5745,-0.1968 l 0.0844,-0.7029 c 1.6588,-0.7591 3.5425,-0.9559 5.3137,-1.0683 -0.0281,1.5182 0.0563,3.4862 -0.1968,4.9763 -2.2492,0.4218 -6.4102,-0.8996 -9.0249,-0.8434 l -4.4422,3.5425 c -0.3093,0.5061 -0.1125,1.237 0,1.7994 -0.4498,0.0843 -1.0403,0.1405 -1.7994,0.1968 z m 12.8486,-0.3093 c 0.1406,-1.1246 0.7872,-1.6588 1.5463,-2.193 0.3937,-0.1968 0.8716,-0.4217 1.2933,-0.8153 0.5623,-1.4339 0.5623,-4.1611 0.5905,-6.3821 0.6185,0.0562 2.1929,0.1686 2.8958,0.1968 0.2249,1.9118 -0.8716,3.4581 -1.0965,5.0888 -0.1687,1.2652 -0.0281,1.4057 0,1.8275 0.0563,0.5904 -1.1527,0.731 -1.8837,0.8715 -1.1246,0.3655 -2.193,0.7591 -3.3457,1.4058 z m -14.7885,-2.9802 c 0.2811,-1.0403 0.3936,-2.2492 0.8153,-3.1208 1.5464,-1.2089 3.7674,-2.4741 5.7636,-3.3457 1.715,-0.0562 3.3457,0 4.9202,0.2531 -0.1125,0.4779 -0.1969,0.9559 -0.2531,1.5463 -1.4901,-0.1125 -2.9239,-0.2249 -4.4984,-0.2249 -1.5182,0.506 -3.2613,1.3776 -4.639,2.5303 -0.2249,0.8435 0.1125,1.462 0.2531,2.3055 -0.5623,0.0562 -1.6307,0.0281 -2.3055,0.0562 l -0.0562,0 z m 44.9279,-0.3093 c -0.3655,-0.6747 -0.7872,-0.9278 -1.1527,-1.3495 -1.0965,-1.1808 -0.7029,-3.0364 -0.0844,-4.7796 0,-0.731 -0.3655,-1.4338 -1.1808,-1.4338 -2.1086,0.3374 -3.9642,2.1086 -6.0729,1.9399 -0.731,-1.5182 -1.1527,-3.908 -3.177,-4.8077 2.8115,0.3374 4.639,1.8556 5.5949,3.3176 1.8275,-1.5744 4.0205,-3.4581 6.6352,-2.7272 0.9278,0.3093 1.462,0.9841 1.6588,1.9962 0.1687,1.6026 -0.8154,3.655 0.8715,5.0607 -0.6747,0.3655 -1.4901,-0.5904 -2.1648,-0.3655 0.4498,0.5342 0.6466,0.9841 0.7591,1.7432 -0.478,-0.3655 -1.0965,-0.5904 -1.8556,-0.6186 0.1125,0.5342 0.4498,0.9841 0.1968,1.9681 l -0.0281,0.0562 z m -19.6806,-1.968 -1.8275,-1.8275 c -0.3092,0.5623 -0.7309,1.4901 -1.1527,2.1086 -0.1968,-0.3655 -0.6185,-0.9559 -0.9278,-1.4338 0.4218,-1.2371 0.5342,-1.9119 0.3655,-3.5144 0.5904,-0.5061 2.5866,-2.193 4.3016,-3.0365 1.4339,-0.506 2.3898,-0.984 2.671,-1.6025 0.1968,0.1968 0.6466,0.5061 0.984,0.7591 -0.5904,1.0402 -2.6991,2.3617 -4.5265,2.7553 0.3092,0.2249 1.0402,0.2249 1.6025,0.1968 -0.9278,1.6588 -1.3776,3.3738 -1.4901,5.5949 z m 7.3099,-3.655 c -0.253,-1.462 -0.8715,-3.0645 -1.8555,-4.6109 0.8434,-0.3092 2.0524,0.2531 2.7271,0.9278 0.9559,0.8997 1.4901,2.3055 1.7994,3.7112 -0.5061,-0.0281 -1.9962,0.0281 -2.671,-0.0281 z m -20.3272,-0.1406 c 0,-0.4217 0.2531,-0.7591 0.478,-1.1527 1.3495,-0.6466 3.1489,-0.8715 4.4984,-0.7591 0.0844,0.3655 0.1406,0.5904 0.1687,0.9278 -1.7431,0.1406 -3.4581,0.3374 -5.1451,0.984 z m 14.9292,-0.5623 c 0.0562,-0.3373 0.3654,-1.0121 0.6466,-1.5463 0.8435,-0.3936 1.5463,-0.8997 2.1367,-1.4901 0.7873,0.731 1.4901,2.5022 1.6026,3.7112 -1.3776,-0.0562 -2.924,-0.2812 -4.3859,-0.6748 z m -9.025,-0.506 c -0.0562,-0.3936 -0.1124,-0.6186 -0.1406,-1.1246 0.3093,-0.2531 0.5623,-0.4499 0.8716,-0.6186 l 2.193,1.6588 c 0.0281,0.0844 0,0.2249 -0.0281,0.3093 -0.8154,-0.0562 -2.1087,-0.1687 -2.8959,-0.2249 z m 3.4019,-0.5623 -2.0524,-1.6869 c 1.7151,-1.9681 3.9643,-3.5988 7.0288,-4.7796 0.3936,0.731 1.0403,1.4339 1.5745,2.0805 -0.2531,0.5342 -0.9278,1.0122 -2.2774,1.3776 -1.6306,0.8435 -3.6268,2.671 -4.2735,3.0084 z m -8.2377,-0.6467 c 1.4058,-2.4179 3.8799,-4.3859 6.7758,-5.5949 -0.1125,0.9278 0.2811,1.3495 0.8715,1.9962 l -2.1648,2.1648 -1.4058,1.0403 c -1.4057,-0.0562 -2.5304,0.1125 -4.0767,0.3936 z m -0.6747,-0.4498 c -0.1125,-0.8154 -0.1125,-1.6869 -0.1968,-2.4742 1.6306,-1.3214 4.5827,-3.1207 7.0568,-3.5706 0.1968,0 0.2531,0.1406 0.4499,0.1406 -3.5988,1.5463 -5.7917,3.7112 -7.3099,5.9042 z m -2.6991,-1.9119 c -1.0965,0 -1.5744,-0.7309 -1.7431,-1.6025 0.7591,-0.1968 2.3616,-0.5342 3.2332,-0.3655 0.1687,1.1527 -0.3936,1.968 -1.4901,1.968 z M 101.1849,98.662 C 98.3733,97.2281 96.2366,91.6894 96.1241,87.8658 l 6.3259,-0.9559 c 0.8716,2.3054 1.2933,9.5872 -1.2651,11.7521 z M 83.135,98.2684 c 0.1405,-0.8154 -0.1968,-1.6588 0.1687,-2.6429 0.6185,-1.5744 0.8715,-3.2613 -0.956,-4.3859 -0.4217,-0.1968 -0.8715,-0.2812 -1.3495,-0.3374 -0.0562,-0.5061 -0.0562,-1.0684 -0.1406,-1.5463 1.9681,-0.0844 4.8358,1.0402 6.4384,2.446 0.984,0.7872 1.8556,1.7994 2.5585,3.0083 -0.1968,0.0281 -0.6467,0.1406 -1.1246,0.3093 -0.8154,-1.3496 -2.4742,-3.3176 -4.1892,-3.7956 l 0.2812,0.7029 c 1.4057,0.8716 2.2211,1.7431 3.0645,3.3457 -1.5744,0.6466 -3.2613,1.5744 -4.7514,2.8959 z m 9.4466,-0.4218 c -0.506,-0.506 -1.1527,-1.462 -0.3936,-1.8275 l 4.5828,-1.6587 c 0.1406,0.3655 0.3374,0.6466 0.5623,1.0683 -1.7431,0.5904 -3.2895,1.5745 -4.7515,2.4179 z m -13.5795,-0.7872 -1.1246,-4.639 c 0.4779,-0.4498 1.7712,-0.731 2.446,-0.731 l 0.6466,5.117 c -0.4217,0.0843 -1.2652,0.2249 -1.8556,0.3655 l -0.1124,-0.1125 z m 2.6147,-0.2811 -0.5342,-4.9764 c 0.9559,0.0843 1.6869,0.5623 1.9118,1.2089 0.4498,0.8435 -0.6185,2.8678 -0.5061,3.8237 l -0.8715,-0.0562 z m 18.5278,-0.7592 c 0.0843,-0.506 -0.0562,-1.4057 -0.0562,-2.0524 -0.3936,0.1406 -0.6186,0.1969 -1.3777,0.3655 L 98.4858,93.292 c 0.4498,-0.0562 1.0121,-0.0844 1.462,-0.2249 -0.0562,-0.6186 -0.1687,-1.1528 -0.2812,-1.94 -0.253,0 -1.0121,0.1968 -1.5182,0.2812 l -0.1406,-0.9278 c 0.6467,-0.0563 1.0684,-0.1406 1.4901,-0.1968 -0.1124,-0.6748 -0.1968,-1.2652 -0.4217,-1.9962 0.1968,-0.0843 0.8435,-0.1125 1.0684,-0.1968 0.0281,0.8434 0.1125,1.3495 0.253,2.0524 0.3936,-0.1406 1.1527,-0.2249 1.4901,-0.3093 0.0281,0.3374 0.0563,0.6748 0.0844,0.9841 -0.4499,0.0562 -0.8997,0.0843 -1.4058,0.1405 0.1406,0.7873 0.2249,1.3214 0.3655,1.9681 0.7029,-0.1968 0.8154,-0.1687 1.3214,-0.3093 l 0.1687,1.0403 c -0.3936,0.0843 -0.7872,0.1124 -1.4057,0.1968 0.0843,0.5904 0.253,1.3214 0.3655,1.968 -0.3093,0.0563 -0.7873,0.1968 -1.2371,0.1968 z m -6.354,-1.5463 c -0.2531,-0.984 -0.478,-2.4179 -0.4217,-3.5144 0.8434,-0.1405 1.4901,-0.2811 2.2773,-0.4779 0.1687,1.0684 0.4779,2.1367 0.7872,3.1208 -0.5904,0.1968 -1.7994,0.6747 -2.6428,0.8715 z M 79.1989,93.9949 c -0.1125,-0.2531 -0.1968,-0.5623 -0.0563,-0.8435 0.2531,-0.1968 0.3374,-0.0562 0.5904,0 0.1969,0.2812 0.2812,0.478 0.1406,0.7872 -0.0562,0.2531 -0.3655,0.225 -0.6747,0.0563 z m -1.5183,-2.3055 -0.4217,-0.8715 c -0.5904,-0.956 -0.2811,-0.7591 -0.7591,-1.2933 0.4217,-0.0281 1.0684,0.3373 1.6026,0.6747 -0.1125,-0.6185 -0.2249,-1.1246 -0.2812,-1.6588 0.5061,0.1125 1.0965,0.3936 1.3777,0.956 0,0 0.4217,-0.0563 0.8996,-0.0844 0.1125,0.5623 0.1125,0.9278 0.1687,1.462 -0.7028,0.0843 -2.0243,0.3374 -2.5866,0.8153 z m 15.632,-1.5182 c 0.0563,-1.0965 0.3093,-2.2492 1.0684,-3.2332 1.1808,-1.5182 1.3495,-3.8518 0.3093,-5.3981 0.984,-0.2812 2.2492,-0.2249 3.2613,0.1124 0.1687,1.2933 0.1125,2.8397 -0.8997,4.3298 l 0.6186,0.9278 c -0.5905,0.1124 -1.6026,0.253 -2.3898,0.3655 -0.0562,0.731 0.0843,1.8556 0.1968,2.5022 -0.4217,0.1125 -1.5745,0.3936 -2.1649,0.3936 z m -6.1291,-3.1489 c 0,-2.3335 0.0844,-4.6671 0.1687,-6.9444 -1.0683,-0.7872 -0.5623,-2.4179 0.9278,-2.2492 0.5623,0.0843 0.8997,0.7029 0.8997,1.2652 -0.0562,0.3936 -0.2249,0.7591 -0.5342,1.0402 0.0844,1.0403 0.3093,3.8518 0.4218,5.5106 l 4.2453,1.715 c -0.3936,0.7029 -0.5342,1.3776 -0.6185,2.0805 l -5.5106,-2.4179 z m 6.9164,-0.984 c -0.8154,-0.6748 -1.0965,-2.2773 -0.9841,-3.2895 0.0281,-0.3936 0.3936,-0.984 0.8435,-0.9278 0.8153,0.3936 0.984,3.6831 0.1406,4.2173 z m -3.1771,-4.2454 -0.6747,-2.2773 -0.4217,0 c 0.1405,-0.5342 0.1968,-0.8997 -0.1406,-1.6026 l 0.4779,-0.0843 0.3937,-2.3617 0.6185,2.4179 12.0332,-0.3936 3.3738,0.9278 -3.3175,0.8435 -12.0052,0.0562 -0.3374,2.4741 z m -5.5105,-2.5303 c -0.253,-0.1687 -0.1968,-0.4499 -0.0562,-0.6748 0.1687,-0.1687 0.3936,-0.2812 0.6747,-0.0843 0.1968,0.1968 0.1968,0.4779 0.0844,0.7309 -0.1687,0.1969 -0.478,0.2531 -0.7029,0.0282 z"
       id="path10"
       inkscape:connector-curvature="0"
       style="fill:#1f1a17" /></g></svg>